{
  "$schema": "https://go.kicad.org/pcm/schemas/v1",
  "name": "kicad-action-scripts",
  "description": "ViaStitching and more tools ",
  "description_full": "Via stitching action tool and circular zone builder action tool. Use the action menu/toolbar feature.",
  "identifier": "com.github.jsreynaud.kicad-action-scripts",
  "type": "plugin",
  "author": {
    "name": "jsreynaud",
    "contact": {
      "email": "js.reynaud@gmail.com"
    }
  },
  "license": "GPL-2.0",
  "resources": {
    "Github": "https://github.com/jsreynaud/kicad-action-scripts",
    "Readme": "https://github.com/jsreynaud/kicad-action-scripts/blob/master/README.md"
  },
  "tags": [
    "annular",
    "pcbnew",
    "dxf",
    "grid",
    "mcad"
  ],
  "versions": [
    {
      "version": "5.1.0",
      "download_sha256": "c6ee187faf5c0cce50024e93d2fc358fe71d59a950735b9e8206e88d83ee6fa8",
      "download_size": 51020,
      "install_size": 297823,
      "status": "stable",
      "kicad_version": "5.1",
      "kicad_version_max": "5.1",
      "download_url": "https://github.com/jsreynaud/kicad-action-scripts/releases/download/v5.1-0.1.0/kicad-action-scripts_v5.1-0.1.0.zip",
      "platforms": [
        "linux",
        "macos",
        "windows"
      ]
    },
    {
      "version": "6.0.0",
      "download_sha256": "74d7f7296b6aa4b659a6178d0a93d733e11013f1b12340647c8f863b493f0e32",
      "download_size": 51951,
      "install_size": 276212,
      "status": "stable",
      "kicad_version": "6.0",
      "kicad_version_max": "6.0",
      "download_url": "https://github.com/jsreynaud/kicad-action-scripts/releases/download/v6.0-0.1.0/kicad-action-scripts_v6.0-0.1.0.zip",
      "platforms": [
        "linux",
        "macos",
        "windows"
      ]
    }
  ]
}
